simulation/qsim/LogicalStep_Lab3.msim.vcd
$comment
	File created using the following command:
		vcd file LogicalStep_Lab3.msim.vcd -direction
$end
$date
	Tue Mar 04 18:10:26 2025
$end
$version
	ModelSim Version 10.5b
$end
$timescale
	1ps
$end

$scope module logicalstep_lab3_top_vhd_vec_tst $end
$var wire 1 ! clkin_50 $end
$var wire 1 " leds [7] $end
$var wire 1 # leds [6] $end
$var wire 1 $ leds [5] $end
$var wire 1 % leds [4] $end
$var wire 1 & leds [3] $end
$var wire 1 ' leds [2] $end
$var wire 1 ( leds [1] $end
$var wire 1 ) leds [0] $end
$var wire 1 * pb_n [3] $end
$var wire 1 + pb_n [2] $end
$var wire 1 , pb_n [1] $end
$var wire 1 - pb_n [0] $end
$var wire 1 . seg7_char1 $end
$var wire 1 / seg7_char2 $end
$var wire 1 0 seg7_data [6] $end
$var wire 1 1 seg7_data [5] $end
$var wire 1 2 seg7_data [4] $end
$var wire 1 3 seg7_data [3] $end
$var wire 1 4 seg7_data [2] $end
$var wire 1 5 seg7_data [1] $end
$var wire 1 6 seg7_data [0] $end
$var wire 1 7 sw [7] $end
$var wire 1 8 sw [6] $end
$var wire 1 9 sw [5] $end
$var wire 1 : sw [4] $end
$var wire 1 ; sw [3] $end
$var wire 1 < sw [2] $end
$var wire 1 = sw [1] $end
$var wire 1 > sw [0] $end

$scope module i1 $end
$var wire 1 ? gnd $end
$var wire 1 @ vcc $end
$var wire 1 A unknown $end
$var wire 1 B devoe $end
$var wire 1 C devclrn $end
$var wire 1 D devpor $end
$var wire 1 E ww_devoe $end
$var wire 1 F ww_devclrn $end
$var wire 1 G ww_devpor $end
$var wire 1 H ww_clkin_50 $end
$var wire 1 I ww_pb_n [3] $end
$var wire 1 J ww_pb_n [2] $end
$var wire 1 K ww_pb_n [1] $end
$var wire 1 L ww_pb_n [0] $end
$var wire 1 M ww_sw [7] $end
$var wire 1 N ww_sw [6] $end
$var wire 1 O ww_sw [5] $end
$var wire 1 P ww_sw [4] $end
$var wire 1 Q ww_sw [3] $end
$var wire 1 R ww_sw [2] $end
$var wire 1 S ww_sw [1] $end
$var wire 1 T ww_sw [0] $end
$var wire 1 U ww_leds [7] $end
$var wire 1 V ww_leds [6] $end
$var wire 1 W ww_leds [5] $end
$var wire 1 X ww_leds [4] $end
$var wire 1 Y ww_leds [3] $end
$var wire 1 Z ww_leds [2] $end
$var wire 1 [ ww_leds [1] $end
$var wire 1 \ ww_leds [0] $end
$var wire 1 ] ww_seg7_data [6] $end
$var wire 1 ^ ww_seg7_data [5] $end
$var wire 1 _ ww_seg7_data [4] $end
$var wire 1 ` ww_seg7_data [3] $end
$var wire 1 a ww_seg7_data [2] $end
$var wire 1 b ww_seg7_data [1] $end
$var wire 1 c ww_seg7_data [0] $end
$var wire 1 d ww_seg7_char1 $end
$var wire 1 e ww_seg7_char2 $end
$var wire 1 f \~QUARTUS_CREATED_ADC1~_CHSEL_bus\ [4] $end
$var wire 1 g \~QUARTUS_CREATED_ADC1~_CHSEL_bus\ [3] $end
$var wire 1 h \~QUARTUS_CREATED_ADC1~_CHSEL_bus\ [2] $end
$var wire 1 i \~QUARTUS_CREATED_ADC1~_CHSEL_bus\ [1] $end
$var wire 1 j \~QUARTUS_CREATED_ADC1~_CHSEL_bus\ [0] $end
$var wire 1 k \clkin_50~inputclkctrl_INCLK_bus\ [3] $end
$var wire 1 l \clkin_50~inputclkctrl_INCLK_bus\ [2] $end
$var wire 1 m \clkin_50~inputclkctrl_INCLK_bus\ [1] $end
$var wire 1 n \clkin_50~inputclkctrl_INCLK_bus\ [0] $end
$var wire 1 o \pb_n[0]~input_o\ $end
$var wire 1 p \pb_n[1]~input_o\ $end
$var wire 1 q \pb_n[2]~input_o\ $end
$var wire 1 r \pb_n[3]~input_o\ $end
$var wire 1 s \~QUARTUS_CREATED_GND~I_combout\ $end
$var wire 1 t \~QUARTUS_CREATED_UNVM~~busy\ $end
$var wire 1 u \~QUARTUS_CREATED_ADC1~~eoc\ $end
$var wire 1 v \seg7_data[1]~output_o\ $end
$var wire 1 w \seg7_data[5]~output_o\ $end
$var wire 1 x \seg7_data[6]~output_o\ $end
$var wire 1 y \leds[0]~output_o\ $end
$var wire 1 z \leds[1]~output_o\ $end
$var wire 1 { \leds[2]~output_o\ $end
$var wire 1 | \leds[3]~output_o\ $end
$var wire 1 } \leds[4]~output_o\ $end
$var wire 1 ~ \leds[5]~output_o\ $end
$var wire 1 !! \leds[6]~output_o\ $end
$var wire 1 "! \leds[7]~output_o\ $end
$var wire 1 #! \seg7_data[0]~output_o\ $end
$var wire 1 $! \seg7_data[2]~output_o\ $end
$var wire 1 %! \seg7_data[3]~output_o\ $end
$var wire 1 &! \seg7_data[4]~output_o\ $end
$var wire 1 '! \seg7_char1~output_o\ $end
$var wire 1 (! \seg7_char2~output_o\ $end
$var wire 1 )! \clkin_50~input_o\ $end
$var wire 1 *! \clkin_50~inputclkctrl_outclk\ $end
$var wire 1 +! \inst3|clk_proc:COUNT[0]~0_combout\ $end
$var wire 1 ,! \inst3|clk_proc:COUNT[0]~q\ $end
$var wire 1 -! \inst3|clk_proc:COUNT[1]~1_combout\ $end
$var wire 1 .! \inst3|clk_proc:COUNT[1]~q\ $end
$var wire 1 /! \inst3|clk_proc:COUNT[1]~2\ $end
$var wire 1 0! \inst3|clk_proc:COUNT[2]~1_combout\ $end
$var wire 1 1! \inst3|clk_proc:COUNT[2]~q\ $end
$var wire 1 2! \inst3|clk_proc:COUNT[2]~2\ $end
$var wire 1 3! \inst3|clk_proc:COUNT[3]~1_combout\ $end
$var wire 1 4! \inst3|clk_proc:COUNT[3]~q\ $end
$var wire 1 5! \inst3|clk_proc:COUNT[3]~2\ $end
$var wire 1 6! \inst3|clk_proc:COUNT[4]~1_combout\ $end
$var wire 1 7! \inst3|clk_proc:COUNT[4]~q\ $end
$var wire 1 8! \inst3|clk_proc:COUNT[4]~2\ $end
$var wire 1 9! \inst3|clk_proc:COUNT[5]~1_combout\ $end
$var wire 1 :! \inst3|clk_proc:COUNT[5]~q\ $end
$var wire 1 ;! \inst3|clk_proc:COUNT[5]~2\ $end
$var wire 1 <! \inst3|clk_proc:COUNT[6]~1_combout\ $end
$var wire 1 =! \inst3|clk_proc:COUNT[6]~q\ $end
$var wire 1 >! \inst3|clk_proc:COUNT[6]~2\ $end
$var wire 1 ?! \inst3|clk_proc:COUNT[7]~1_combout\ $end
$var wire 1 @! \inst3|clk_proc:COUNT[7]~q\ $end
$var wire 1 A! \inst3|clk_proc:COUNT[7]~2\ $end
$var wire 1 B! \inst3|clk_proc:COUNT[8]~1_combout\ $end
$var wire 1 C! \inst3|clk_proc:COUNT[8]~q\ $end
$var wire 1 D! \inst3|clk_proc:COUNT[8]~2\ $end
$var wire 1 E! \inst3|clk_proc:COUNT[9]~1_combout\ $end
$var wire 1 F! \inst3|clk_proc:COUNT[9]~q\ $end
$var wire 1 G! \inst3|clk_proc:COUNT[9]~2\ $end
$var wire 1 H! \inst3|clk_proc:COUNT[10]~1_combout\ $end
$var wire 1 I! \inst3|clk_proc:COUNT[10]~q\ $end
$var wire 1 J! \sw[4]~input_o\ $end
$var wire 1 K! \sw[6]~input_o\ $end
$var wire 1 L! \sw[7]~input_o\ $end
$var wire 1 M! \sw[5]~input_o\ $end
$var wire 1 N! \inst2|Mux5~0_combout\ $end
$var wire 1 O! \sw[2]~input_o\ $end
$var wire 1 P! \sw[0]~input_o\ $end
$var wire 1 Q! \sw[1]~input_o\ $end
$var wire 1 R! \sw[3]~input_o\ $end
$var wire 1 S! \inst1|Mux5~0_combout\ $end
$var wire 1 T! \inst3|DOUT_TEMP[1]~0_combout\ $end
$var wire 1 U! \inst2|Mux1~0_combout\ $end
$var wire 1 V! \inst1|Mux1~0_combout\ $end
$var wire 1 W! \inst3|DOUT_TEMP[5]~1_combout\ $end
$var wire 1 X! \inst1|Mux0~0_combout\ $end
$var wire 1 Y! \inst2|Mux0~0_combout\ $end
$var wire 1 Z! \inst3|DOUT_TEMP[6]~2_combout\ $end
$var wire 1 [! \inst7|Add1~1_cout\ $end
$var wire 1 \! \inst7|Add1~2_combout\ $end
$var wire 1 ]! \inst7|counter:cnt[1]~0_combout\ $end
$var wire 1 ^! \inst7|counter:cnt[1]~q\ $end
$var wire 1 _! \inst7|Add1~3\ $end
$var wire 1 `! \inst7|Add1~4_combout\ $end
$var wire 1 a! \inst7|counter:cnt[2]~0_combout\ $end
$var wire 1 b! \inst7|counter:cnt[2]~q\ $end
$var wire 1 c! \inst7|counter~0_combout\ $end
$var wire 1 d! \inst7|counter~1_combout\ $end
$var wire 1 e! \inst7|Add1~5\ $end
$var wire 1 f! \inst7|Add1~6_combout\ $end
$var wire 1 g! \inst7|counter:cnt[3]~q\ $end
$var wire 1 h! \inst7|counter:cnt[0]~0_combout\ $end
$var wire 1 i! \inst7|counter:cnt[0]~1_combout\ $end
$var wire 1 j! \inst7|counter:cnt[0]~2_combout\ $end
$var wire 1 k! \inst7|counter:cnt[0]~q\ $end
$var wire 1 l! \inst2|Mux6~0_combout\ $end
$var wire 1 m! \inst1|Mux6~0_combout\ $end
$var wire 1 n! \inst3|DOUT[0]~0_combout\ $end
$var wire 1 o! \inst1|Mux4~0_combout\ $end
$var wire 1 p! \inst2|Mux4~0_combout\ $end
$var wire 1 q! \inst3|DOUT[2]~2_combout\ $end
$var wire 1 r! \inst1|Mux3~0_combout\ $end
$var wire 1 s! \inst2|Mux3~0_combout\ $end
$var wire 1 t! \inst3|DOUT[3]~3_combout\ $end
$var wire 1 u! \inst2|Mux2~0_combout\ $end
$var wire 1 v! \inst1|Mux2~0_combout\ $end
$var wire 1 w! \inst3|DOUT[4]~4_combout\ $end
$var wire 1 x! \inst3|ALT_INV_DOUT[4]~4_combout\ $end
$var wire 1 y! \inst3|ALT_INV_DOUT[3]~3_combout\ $end
$var wire 1 z! \inst3|ALT_INV_DOUT[2]~2_combout\ $end
$var wire 1 {! \inst3|ALT_INV_DOUT[0]~0_combout\ $end
$var wire 1 |! \inst7|ALT_INV_counter:cnt[2]~q\ $end
$var wire 1 }! \inst7|ALT_INV_counter:cnt[1]~q\ $end
$var wire 1 ~! \inst7|ALT_INV_counter:cnt[0]~q\ $end
$var wire 1 !" \inst3|ALT_INV_clk_proc:COUNT[10]~q\ $end
$upscope $end
$upscope $end
$enddefinitions $end
#0
$dumpvars
0!
1.
0/
0?
1@
xA
1B
1C
1D
1E
1F
1G
0H
1d
0e
xo
xp
xq
xr
0s
zt
zu
zv
zw
zx
1y
1z
1{
0|
0}
0~
0!!
0"!
x#!
x$!
x%!
x&!
1'!
0(!
0)!
0*!
1+!
0,!
0-!
0.!
0/!
00!
01!
12!
03!
04!
05!
06!
07!
18!
09!
0:!
0;!
0<!
0=!
1>!
0?!
0@!
0A!
0B!
0C!
1D!
0E!
0F!
0G!
0H!
0I!
xJ!
xK!
xL!
xM!
xN!
0O!
1P!
1Q!
xR!
xS!
xT!
xU!
xV!
xW!
1X!
xY!
xZ!
1[!
0\!
1]!
0^!
0_!
0`!
1a!
0b!
1c!
1d!
1e!
1f!
0g!
1h!
1i!
1j!
0k!
xl!
xm!
xn!
0o!
xp!
xq!
0r!
xs!
xt!
xu!
xv!
xw!
xx!
xy!
xz!
x{!
1|!
1}!
1~!
1!"
x7
x8
x9
x:
x;
0<
1=
1>
xI
xJ
xK
xL
xM
xN
xO
xP
xQ
0R
1S
1T
0U
0V
0W
0X
0Y
1Z
1[
1\
z]
z^
x_
x`
xa
zb
xc
1k
1l
1m
0n
0f
0g
0h
0i
0j
0"
0#
0$
0%
0&
1'
1(
1)
x*
x+
x,
x-
z0
z1
x2
x3
x4
z5
x6
$end
#10000
1!
1H
1)!
1n
1*!
1,!
1^!
1b!
1g!
1k!
0~!
0|!
0}!
1|
0[!
0j!
0f!
1`!
0e!
1\!
1_!
0+!
1-!
0z
0{
0y
1Y
0`!
0]!
1f!
0a!
0\!
0[
0Z
0\
1&
0)
0(
0'
1]!
1a!
#20000
0!
0H
0)!
0n
0*!
#30000
1!
1H
1)!
1n
1*!
0,!
1.!
0k!
1~!
1[!
1j!
1+!
1y
1\!
1\
1)
0]!
#40000
0!
0H
0)!
0n
0*!
#50000
1!
1H
1)!
1n
1*!
1,!
0^!
1k!
0~!
1}!
0[!
0j!
0\!
0_!
0+!
0-!
1/!
1z
0y
10!
1`!
1]!
1\!
1_!
1[
0\
0)
1(
0`!
0]!
0a!
1a!
#60000
0!
0H
0)!
0n
0*!
#70000
1!
1H
1)!
1n
1*!
0,!
0.!
11!
0k!
1~!
1[!
1j!
00!
02!
1+!
0/!
1y
10!
12!
13!
0\!
0_!
1\
1)
1`!
1]!
03!
0a!
#80000
0!
0H
0)!
0n
0*!
#90000
1!
1H
1)!
1n
1*!
1,!
1^!
0b!
1k!
0~!
1|!
0}!
0[!
0j!
0`!
1e!
1\!
1_!
0+!
1-!
0z
1{
0y
1`!
0e!
0]!
0f!
1a!
0\!
0[
1Z
0\
0)
0(
1'
1]!
1f!
0a!
#100000
0!
0H
0)!
0n
0*!
#110000
1!
1H
1)!
1n
1*!
0,!
1.!
0k!
1~!
1[!
1j!
1+!
1y
1\!
1\
1)
0]!
#120000
0!
0H
0)!
0n
0*!
#130000
1!
1H
1)!
1n
1*!
1,!
0^!
1k!
0~!
1}!
0[!
0j!
0\!
0_!
0+!
0-!
1/!
1z
0y
00!
02!
0`!
1e!
1]!
1\!
1_!
1[
0\
0)
1(
1`!
0e!
0]!
0f!
1a!
13!
1f!
0a!
#140000
0!
0H
0)!
0n
0*!
#150000
1!
1H
1)!
1n
1*!
0,!
0.!
01!
14!
0k!
1~!
1[!
0c!
1j!
03!
15!
10!
12!
1+!
0/!
1y
00!
13!
05!
16!
0d!
0\!
0_!
1\
1)
1]!
1\!
1e!
0f!
0i!
06!
0j!
1f!
0]!
#160000
0!
0H
0)!
0n
0*!
#170000
1!
1H
1)!
1n
1*!
1,!
0+!
1-!
#180000
0!
0H
0)!
0n
0*!
#190000
1!
1H
1)!
1n
1*!
0,!
1.!
1+!
#200000
0!
0H
0)!
0n
0*!
#210000
1!
1H
1)!
1n
1*!
1,!
0+!
0-!
1/!
10!
#220000
0!
0H
0)!
0n
0*!
#230000
1!
1H
1)!
1n
1*!
0,!
0.!
11!
00!
02!
1+!
0/!
10!
12!
03!
15!
16!
13!
05!
06!
#240000
0!
0H
0)!
0n
0*!
#250000
1!
1H
1)!
1n
1*!
1,!
0+!
1-!
#260000
0!
0H
0)!
0n
0*!
#270000
1!
1H
1)!
1n
1*!
0,!
1.!
1+!
#280000
0!
0H
0)!
0n
0*!
#290000
1!
1H
1)!
1n
1*!
1,!
0+!
0-!
1/!
00!
02!
03!
15!
16!
#300000
0!
0H
0)!
0n
0*!
#310000
1!
1H
1)!
1n
1*!
0,!
0.!
01!
04!
17!
06!
08!
13!
05!
10!
12!
1+!
0/!
00!
03!
16!
18!
19!
09!
#320000
0!
0H
0)!
0n
0*!
#330000
1!
1H
1)!
1n
1*!
1,!
0+!
1-!
#340000
0!
0H
0)!
0n
0*!
#350000
1!
1H
1)!
1n
1*!
0,!
1.!
1+!
#360000
0!
0H
0)!
0n
0*!
#370000
1!
1H
1)!
1n
1*!
1,!
0+!
0-!
1/!
10!
#380000
0!
0H
0)!
0n
0*!
#390000
1!
1H
1)!
1n
1*!
0,!
0.!
11!
00!
02!
1+!
0/!
10!
12!
13!
03!
#400000
0!
0=
0H
0S
0Q!
0)!
0n
0S!
xX!
xr!
1v!
0*!
#410000
1!
1H
1)!
1n
1*!
1,!
0+!
1-!
#420000
0!
0H
0)!
0n
0*!
#430000
1!
1H
1)!
1n
1*!
0,!
1.!
1+!
#440000
0!
0H
0)!
0n
0*!
#450000
1!
1H
1)!
1n
1*!
1,!
0+!
0-!
1/!
00!
02!
13!
#460000
0!
0H
0)!
0n
0*!
#470000
1!
1H
1)!
1n
1*!
0,!
0.!
01!
14!
03!
15!
10!
12!
1+!
0/!
00!
13!
05!
06!
08!
19!
16!
18!
09!
#480000
0!
0H
0)!
0n
0*!
#490000
1!
1H
1)!
1n
1*!
1,!
0+!
1-!
#500000
0!
0H
0)!
0n
0*!
#510000
1!
1H
1)!
1n
1*!
0,!
1.!
1+!
#520000
0!
0H
0)!
0n
0*!
#530000
1!
1H
1)!
1n
1*!
1,!
0+!
0-!
1/!
10!
#540000
0!
0H
0)!
0n
0*!
#550000
1!
1H
1)!
1n
1*!
0,!
0.!
11!
00!
02!
1+!
0/!
10!
12!
03!
15!
06!
08!
13!
05!
16!
18!
19!
09!
#560000
0!
0H
0)!
0n
0*!
#570000
1!
1H
1)!
1n
1*!
1,!
0+!
1-!
#580000
0!
0H
0)!
0n
0*!
#590000
1!
1H
1)!
1n
1*!
0,!
1.!
1+!
#600000
0!
1=
0>
0H
0T
1S
1Q!
0P!
0)!
0n
1X!
0m!
xo!
0v!
0*!
#610000
1!
1H
1)!
1n
1*!
1,!
0+!
0-!
1/!
00!
02!
03!
15!
06!
08!
19!
#620000
0!
0H
0)!
0n
0*!
#630000
1!
1H
1)!
1n
1*!
0,!
0.!
01!
04!
07!
1:!
09!
1;!
16!
18!
13!
05!
10!
12!
1+!
0/!
00!
03!
06!
19!
0;!
1<!
0<!
#640000
0!
0H
0)!
0n
0*!
#650000
1!
1H
1)!
1n
1*!
1,!
0+!
1-!
#660000
0!
0H
0)!
0n
0*!
#670000
1!
1H
1)!
1n
1*!
0,!
1.!
1+!
#680000
0!
0H
0)!
0n
0*!
#690000
1!
1H
1)!
1n
1*!
1,!
0+!
0-!
1/!
10!
#700000
0!
0H
0)!
0n
0*!
#710000
1!
1H
1)!
1n
1*!
0,!
0.!
11!
00!
02!
1+!
0/!
10!
12!
13!
03!
#720000
0!
0H
0)!
0n
0*!
#730000
1!
1H
1)!
1n
1*!
1,!
0+!
1-!
#740000
0!
0H
0)!
0n
0*!
#750000
1!
1H
1)!
1n
1*!
0,!
1.!
1+!
#760000
0!
0H
0)!
0n
0*!
#770000
1!
1H
1)!
1n
1*!
1,!
0+!
0-!
1/!
00!
02!
13!
#780000
0!
0H
0)!
0n
0*!
#790000
1!
1H
1)!
1n
1*!
0,!
0.!
01!
14!
03!
15!
10!
12!
1+!
0/!
00!
13!
05!
16!
06!
#800000
0!
0=
1<
0H
0S
1R
1O!
0Q!
0)!
0n
xS!
1m!
xv!
0*!
#810000
1!
1H
1)!
1n
1*!
1,!
0+!
1-!
#820000
0!
0H
0)!
0n
0*!
#830000
1!
1H
1)!
1n
1*!
0,!
1.!
1+!
#840000
0!
0H
0)!
0n
0*!
#850000
1!
1H
1)!
1n
1*!
1,!
0+!
0-!
1/!
10!
#860000
0!
0H
0)!
0n
0*!
#870000
1!
1H
1)!
1n
1*!
0,!
0.!
11!
00!
02!
1+!
0/!
10!
12!
03!
15!
16!
13!
05!
06!
#880000
0!
0H
0)!
0n
0*!
#890000
1!
1H
1)!
1n
1*!
1,!
0+!
1-!
#900000
0!
0H
0)!
0n
0*!
#910000
1!
1H
1)!
1n
1*!
0,!
1.!
1+!
#920000
0!
0H
0)!
0n
0*!
#930000
1!
1H
1)!
1n
1*!
1,!
0+!
0-!
1/!
00!
02!
03!
15!
16!
#940000
0!
0H
0)!
0n
0*!
#950000
1!
1H
1)!
1n
1*!
0,!
0.!
01!
04!
17!
06!
08!
13!
05!
10!
12!
1+!
0/!
00!
03!
16!
18!
09!
1;!
1<!
19!
0;!
0<!
#960000
0!
0H
0)!
0n
0*!
#970000
1!
1H
1)!
1n
1*!
1,!
0+!
1-!
#980000
0!
0H
0)!
0n
0*!
#990000
1!
1H
1)!
1n
1*!
0,!
1.!
1+!
